{
  "data": {
    "pageInfo": {
      "totalCount": 4369,
      "rowsPerPage": 50,
      "currentPage": 1,
      "totalPageCount": 88,
      "hasNextPage": true
    },
    "items": [
      {"id": 683780, "name": "Kids & Boys Multicolor Half Pant 6 Pcs Combo Pack - Available Size in 3 Months to 6 Years", "images": ["s398703e7fa3e4e0ea8b1a4be5933b6089-1740294903862.webp","scdd5363f6c784afc8c795b0b6bd71e4by-1740294919909.webp","s3d1d1429fe5c4cb0877858ac0c1bd717d-1740294866612.webp","s6bdfd05b919e4dad9cdba8b7799ccdb8j-1740294873819.webp","sb935c336d37743d282bba4f1de3c02c2e-1740294912755.webp"], "thumbnail": "s398703e7fa3e4e0ea8b1a4be5933b6089-1740294903862.webp", "price": 200, "discountedPrice": 191, "discountPercentage": 5, "slug": "kids_boys_multicolor_half_pant_6_pcs_combo_pack_-_available_size_in_3_months_to_6_years_446634079497299_g81ggk", "currentStockQty": 49},
      {"id": 662683, "name": "15pcs Rings Set For Women Fashion Rings Couple Rings", "images": ["63fc13910b5b93bf93c4e19d694d647b-1739269230922.webp","5a9d194dc8041219520cf09deba677aa-1739269169956.webp","56e74e0cd50ae9e942ac8ecedee8c014-1739269226202.webp"], "thumbnail": "63fc13910b5b93bf93c4e19d694d647b-1739269230922.webp", "price": 250, "discountedPrice": 116, "discountPercentage": 54, "slug": "15pcs_rings_set_for_women_fashion_rings_couple_rings_485499384584528_szb65u", "currentStockQty": 977},
      {"id": 315547, "name": "M10 Tws Wireless Earphone Touch Bluetooth Earplugs In The Ear Stereo Sport Headsets Cvc8.0 Noise Reduction Headphones With Digital Display Black Good Effect And Easy To Use BY Best Gadget Deal", "images": ["99c19076f28049d764f6546cf2a68fd2-43403fb0-ae3c-4086-92f1-50aa40c34eec.webp","021dbcefb66224c1aced151704ef01d9-857bcf1e-9ca3-466d-a6ef-3d8865e144bc.webp","d3d18eb429963e2bccbf43752b9eceea-a32b5c7a-30f1-4306-aeb5-3ffe1f1ea8ce.webp"], "thumbnail": "99c19076f28049d764f6546cf2a68fd2-43403fb0-ae3c-4086-92f1-50aa40c34eec.webp", "price": 650, "discountedPrice": 259, "discountPercentage": 60, "slug": "m10_tws_wireless_earphone_touch_bluetooth_earplugs_in_the_ear_stereo_sport_headsets_cvc80_noise_reduction_headphones_with_digital_display_black_good_effect_and_easy_to_use_by_best_gadget_deal_3086539003609713_gei4ja", "currentStockQty": 4930},
      {"id": 2137324, "name": "Rfl Storage Container 20L Trans 91008", "images": ["984a04f3f7408ffd424a955a4d5a1564-1763970326927.webp","87cb07d6865d1c829dc43c1c376e2618-1763970086779.webp"], "thumbnail": "984a04f3f7408ffd424a955a4d5a1564-1763970326927.webp", "price": 530, "discountedPrice": 374, "discountPercentage": 29, "slug": "rfl-storage-container-20l-trans-91008-1772699790918-ehvv", "currentStockQty": 54},
      {"id": 633346, "name": "XL Winter Clothes Storage Organizer Bag – Navy Blue", "images": ["e182e602d5de8217984f30dfe2ed855b-1738565178505.webp","e95e0af6c22bc7c22f5112c6834a9309-1738565195080.webp","2433edf25db252fb79024e47853dfe55-1738565191455.webp","bdaab020458af6a93e4343db585d240b-1738565183232.webp","cfc41cf1cf20486d5e273fdd4a338d26-1738564756443.webp"], "thumbnail": "e182e602d5de8217984f30dfe2ed855b-1738565178505.webp", "price": 249, "discountedPrice": 109, "discountPercentage": 56, "slug": "xl_size_winter_cloths_storage_organizer_bags_quilt_storage_bag_cloth_organizer_winter_wardrobe_storage_organizerash_navy_blue_292821009835734_asuptd", "currentStockQty": 99},
      {"id": 2136064, "name": "RFL Kleen Floor Dust Cleaner 1 Pc 851473", "images": ["d895cae5d39c3deb3c4286a22d06d900-1763971194654.webp"], "thumbnail": "d895cae5d39c3deb3c4286a22d06d900-1763971194654.webp", "price": 250, "discountedPrice": 184, "discountPercentage": 26, "slug": "rfl-kleen-floor-dust-cleaner-1-pc-851473-1772699771207-al1o", "currentStockQty": 33},
      {"id": 1051891, "name": "Ruchi Tomato Ketchup – 1kg", "images": ["1536-1777893383891.webp","113-1757328356667.webp"], "thumbnail": "1536-1777893383891.webp", "price": 320, "discountedPrice": 299, "discountPercentage": 7, "slug": "ruchi_tomato_ketchup_-_1_kg_674430116473817_95xp7a", "currentStockQty": 15},
      {"id": 830553, "name": "Small - Stainless Steel Mixer Blender / Grinder Jar - 1pcs", "images": ["2844ea1e7cf345030c261f0f483ecc75-1745922242193.webp","1027a23f843a60aa03492e2448d6b73a-1745922220257.webp","75a635399dff52d9cf4f5a8d99249f71-1745922027479.webp","042a6688570090f4a738242843992fed-1745921951343.webp","995a8cecfcafacffe466deac5184b585-1745922218574.webp"], "thumbnail": "2844ea1e7cf345030c261f0f483ecc75-1745922242193.webp", "price": 539, "discountedPrice": 448, "discountPercentage": 17, "slug": "small_-_stainless_steel_mixer_blender_grinder_jar_-_1pcs_1721578842351469_jjcrmx", "currentStockQty": 409},
      {"id": 84375, "name": "Bag | Trendsetter -8/12 inch Men Crossbody Sling Bag Shoulder bag Mini Backpack Daypack 10L Stylish Mini Bag For all- Inventive Choice", "images": ["18392-1752125680288.webp","0a528fddfa32d672113b92066d516fb7-b2fcea0b-5e37-4a6e-9332-933c91c43a1d.webp","702702e1cd65be1ae6cd32064296dd75-75e1a275-f944-4549-bc75-d525802348f4.webp","ac04a51532e019cec605aeee17edce12-6eacc082-df8a-4820-805e-7a8c94bfb491.webp"], "thumbnail": "18392-1752125680288.webp", "price": 280, "discountedPrice": 172, "discountPercentage": 39, "slug": "trendsetter_-812_inch_men_crossbody_sling_bag_shoulder_bag_mini_backpack_daypack_10l_stylish_mini_bag_for_all-_inventive_choice_5199490740938191_y1x5rd", "currentStockQty": 968},
      {"id": 1671787, "name": "Trendy Leather Sandal For Men-Black - Slippers For Men", "images": ["91b4ceba61f02638fe803c73d31bd0a8-1765179058185.webp"], "thumbnail": "91b4ceba61f02638fe803c73d31bd0a8-1765179058185.webp", "price": 900, "discountedPrice": 306, "discountPercentage": 66, "slug": "trendy_leather_sandal_for_men-black_-_slippers_for_men_46993247797453_5ga8d3", "currentStockQty": 984},
      {"id": 954400, "name": "TP-Link Tapo C210 3MP PAN-TILT Home Security Wi-Fi IP Camera IR LED-UP to 30FT with 360º horizontal range", "images": ["66b5111979e74be589160729a3834f8b-1753866213842-1756103401460.webp","66b5111979e74be589160729a3834f8b-1753866213842-1756104110337.webp","f84222285e8a99b82c53a4f36b404fdc-1753866743882.webp","02fce3268fb28eda94e571c3374fbe38-1753865617915.webp","0be2ff8d414cc79f56b7b95bcd072c3f-1753866766117.webp"], "thumbnail": "66b5111979e74be589160729a3834f8b-1753866213842-1756103401460.webp", "price": 2990, "discountedPrice": 2117, "discountPercentage": 29, "slug": "tp-link_tapo_c210_3mp_pan-tilt_home_security_wi-fi_ip_camera_ir_led-up_to_30ft_with_360_horizontal_range_1049850973154608_ydyucy", "currentStockQty": 9},
      {"id": 470441, "name": "Cereal Stage 2 l 250 g l for 10 month to 2 Years Babies", "images": ["e88893bb7b94fec7e5f3c078fc23d04c-f6f10dfc-8b9e-42a1-9d62-51787413e5f1.webp","de445e1b33894065d591ef5b19c64f70-42d8cecd-0b98-45f3-82f4-30dcf892d914.webp","33c214820b7ef5fb2f8a4c37f8702f4b-2d1659d8-1b23-4e41-a0eb-446cda2ee4c7.webp","f0fdf8b8743e3ce9cee1d4defa6f4725-ad54ffb9-80cc-4133-bdea-e12c99d50549.webp"], "thumbnail": "e88893bb7b94fec7e5f3c078fc23d04c-f6f10dfc-8b9e-42a1-9d62-51787413e5f1.webp", "price": 380, "discountedPrice": 174, "discountPercentage": 54, "slug": "cereal_stage_2_l_250_g_l_for_10_month_to_2_years_babies_2750739811708085_gowasp", "currentStockQty": 1},
      {"id": 584490, "name": "Happy Nappy Pant Diaper L-5pcs (9-14 kg)", "images": ["433-1777892814292.webp","5-a13ec006-0906-4f97-8822-1041ad05c589-1752303608347.webp","5-a13ec006-0906-4f97-8822-1041ad05c589.webp"], "thumbnail": "433-1777892814292.webp", "price": 140, "discountedPrice": 107, "discountPercentage": 24, "slug": "fresh_happy_nappy_pant_diaper_9-14_kg_l-size_5pcs_85105763723437_75z1rk", "currentStockQty": 25},
      {"id": 643258, "name": "Watch | Casio A158WA-1DF Classic Digital Chain Watch", "images": ["190-1777802977378.webp","1-1739073907845.webp","1-1-1739073907113.webp"], "thumbnail": "190-1777802977378.webp", "price": 2990, "discountedPrice": 2354, "discountPercentage": 21, "slug": "casio_a158wa-1df_classic_digital_chain_watch_506925969658161_atkpyi", "currentStockQty": 28},
      {"id": 40093, "name": "Metal Mobile Phone Holder alumium for Motorcycle Bike - Effortlessly Secure Your Device for a Safe Journey.", "images": ["b84d2ac99ffb8b487b0acfbd9f07dfef-293f1571-db81-4302-b6de-f8d0ebfe7d7f.webp","ec559475f91cd37233a89a23821ccb2c-4301aabe-8080-4962-b956-73d398b88603.webp","22062cdda490aa077fbcb1eeddc53c77-2416f249-cf33-426f-8d34-d25e87e57742.webp"], "thumbnail": "b84d2ac99ffb8b487b0acfbd9f07dfef-293f1571-db81-4302-b6de-f8d0ebfe7d7f.webp", "price": 374, "discountedPrice": 285, "discountPercentage": 24, "slug": "metal_mobile_phone_holder_alumium_for_motorcycle_bike_-_effortlessly_secure_your_device_for_a_safe_journey_4675749477666662_px6vu5", "currentStockQty": 88},
      {"id": 1001955, "name": "Muuchstac Ocean Face Wash / Facial Cleansing / Cleanser For Men 100ml", "images": ["81fc45339914533239546efc5c86aa5d-1755409314192.webp","65c1b5779c3f2d71adda7fee4b17d177-1755409290207.webp","9919bdd57919a70b9dd0b3fa35da68a9-1755409455708.webp"], "thumbnail": "81fc45339914533239546efc5c86aa5d-1755409314192.webp", "price": 850, "discountedPrice": 210, "discountPercentage": 75, "slug": "muuchstac_ocean_face_wash_facial_cleansing_cleanser_for_men_100ml_1006442481715680_eljupx", "currentStockQty": 116},
      {"id": 215308, "name": "Vinyl Dumbbell – 1kg × 2 Pcs", "images": ["990-1777803404555.webp","8d53b24ec54e9c53e73a7d4b04675abc-9eb8887c-3670-49bb-81bc-fd8f5f9798b7.webp"], "thumbnail": "990-1777803404555.webp", "price": 850, "discountedPrice": 525, "discountPercentage": 38, "slug": "vinyl_dumbbell_-1kg_-2pcs_314820429930607_p1vh6m", "currentStockQty": 284},
      {"id": 1019058, "name": "For vivo iQOO Z9 Turbo Luxury Premium Quality Antibacterial Q Series Clear Case Transparent Phone Case Back Cover", "images": ["a5ca701699caa2189024659e72e23773-1757917963820.webp","abfeb31c387f0dfdce972ee66fc86228-1755579789050.webp","607a4c8085b679a194a11ac5b99d6c9e-1755579842934.webp","fdb6f51f558b54da1de15a7bb608a425-1755579971543.webp","76aef4d5b7f161d2cbce92367d39515a-1755579771039.webp"], "thumbnail": "a5ca701699caa2189024659e72e23773-1757917963820.webp", "price": 699, "discountedPrice": 299, "discountPercentage": 57, "slug": "for_vivo_iqoo_z9_turbo_luxury_premium_quality_antibacterial_q_series_clear_case_transparent_phone_case_back_cover_1679694170262310_qzqn97", "currentStockQty": 995},
      {"id": 717564, "name": "Key Ring for Bikers - Car - Bike - Home - Office Key Ring - Nice key Ring - key Ring", "images": ["a063cbdce383b08b61553d306bb68044-1741501298716.webp","e9be6f2dd0b85f656f89870ab7531855-1741501434790.webp"], "thumbnail": "a063cbdce383b08b61553d306bb68044-1741501298716.webp", "price": 400, "discountedPrice": 98, "discountPercentage": 76, "slug": "key_ring_for_bikers_-_car_-_bike_-_home_-_office_key_ring_-_nice_key_ring_-_key_ring_1579214962047253_nwn8yg", "currentStockQty": 9878},
      {"id": 31600, "name": "Resistor-300pcs Mix,(10,220,270,330,470,560,1k,1.2k,2.2k,3.3k,4.7k,10k,47k,100k,220k,470k)ohm1/4W5%Carbon Film Resistor(300pcs mix)-30pcs each value", "images": ["6528d77649ce547de5c0c4282bb03f2c-5d131196-3ffe-4bb8-b9e9-0cd1e9b1858f.webp","4b0be02a3b5da491bfdcfbeb47f0a6c1-c48bfde6-33cd-4306-9447-ba8801ebaa6b.webp","82425f7b5d10ebdca50a8468ec66e94d-86dc3c4b-4a32-4551-af1e-3605a4f8a5e7.webp"], "thumbnail": "6528d77649ce547de5c0c4282bb03f2c-5d131196-3ffe-4bb8-b9e9-0cd1e9b1858f.webp", "price": 190, "discountedPrice": 112, "discountPercentage": 41, "slug": "resistor-300pcs_mix102202703304705601k12k22k33k47k10k47k100k220k470kohm14w5carbon_film_resistor300pcs_mix-30pcs_each_value_4429492115665766_mr55gz", "currentStockQty": 72},
      {"id": 2131538, "name": "Tasty Instant Full Cream Milk Powder 200 gm", "images": ["2373-1777893822781.webp"], "thumbnail": "2373-1777893822781.webp", "price": 205, "discountedPrice": 181, "discountPercentage": 12, "slug": "tasty_instant_full_cream_milk_powder_200_gm_866461401275298_g1sl5a", "currentStockQty": 7},
      {"id": 2042543, "name": "Wild Stone - Original Copper Spray For Men - 120ml", "images": ["c2547d2da26b5cdb57c6071847c438c1-jpg-720x720q80-1770182612610.webp","c9a8fbf76d770aa2fab32206e8e7cc83-1770182617763.webp"], "thumbnail": "c2547d2da26b5cdb57c6071847c438c1-jpg-720x720q80-1770182612610.webp", "price": 800, "discountedPrice": 520, "discountPercentage": 35, "slug": "wild_stone_-_original_copper_spray_for_men_-_120ml", "currentStockQty": 208},
      {"id": 627276, "name": "HCW-M633 Battery Charger Control Module DC 6-60V Lithium Battery Charging Control Switch Protection Board M633 Battery Control Circuit With Switches", "images": ["5f09ed767cf9d5e66d1376f3ef32df6e-094f6770-8478-4996-b068-0b27eaf45dd8.webp","0a278a9e426b436bc828213a7a1b7c3e-ac1200b0-04d4-461f-b6fc-8c6f782f6b3f.webp"], "thumbnail": "5f09ed767cf9d5e66d1376f3ef32df6e-094f6770-8478-4996-b068-0b27eaf45dd8.webp", "price": 755, "discountedPrice": 458, "discountPercentage": 39, "slug": "hcw-m633_battery_charger_control_module_dc_6-60v_lithium_battery_charging_control_switch_protection_board_m633_battery_control_circuit_with_switches_211588030774909_7z92se", "currentStockQty": 74},
      {"id": 523379, "name": "Dc Fan Motor 12v 1200-2000rpm - dc motor", "images": ["f525181214e0eb76660bb53f462098fa-88728b12-8005-457c-9431-a0df26396ba1.webp","55383fd82ddfb2d99f2ddcb10c886409-9afa09a8-efee-447c-a25e-edb0d1469664.webp","7258c3bd4a71d7187f831e4cdd2ff962-f31f0f12-dc32-4f74-8623-542a7c541c5b.webp"], "thumbnail": "f525181214e0eb76660bb53f462098fa-88728b12-8005-457c-9431-a0df26396ba1.webp", "price": 550, "discountedPrice": 242, "discountPercentage": 56, "slug": "dc_fan_motor_12v_1200-2000rpm_-_dc_motor_3461407291831816_a5zvog", "currentStockQty": 41},
      {"id": 357582, "name": "Chia Seeds 250gm", "images": ["899706aa4a9ad9c4c7d0b97c69ad50e0-5f62e84c-d853-4587-9ea7-2e169f17df53.webp","d56423260ab1b85951e0006817ddd449-153a715f-ac54-4275-ba18-43c7888b8d99.webp"], "thumbnail": "899706aa4a9ad9c4c7d0b97c69ad50e0-5f62e84c-d853-4587-9ea7-2e169f17df53.webp", "price": 250, "discountedPrice": 154, "discountPercentage": 38, "slug": "chia_seeds_chia_seed_-_250gm_860380216341726_1cx5c4", "currentStockQty": 278},
      {"id": 512083, "name": "Xiaomi Mi AirBud Pro TWS Bluetooth Headset Earbuds Earphones - Bluetooth Headphone-white", "images": ["10f91e9be0c0692b950d7b7ebe690c0f-5db15a69-dee1-4d0c-976c-85948c08dff2.webp","bc5950f7a060a102494f18640fc0f5e8-32f77864-c857-48b0-a21f-b530f0795f76.webp","4c6f605095ca3313b07b4cc572181370-050fbf7b-c2f2-48b2-947e-ecb1e73cd79b.webp"], "thumbnail": "10f91e9be0c0692b950d7b7ebe690c0f-5db15a69-dee1-4d0c-976c-85948c08dff2.webp", "price": 500, "discountedPrice": 249, "discountPercentage": 50, "slug": "xiaomi_mi_airbud_pro_tws_bluetooth_headset_earbuds_earphones_-_bluetooth_headphone-white_3298077262570024_xrq3xm", "currentStockQty": 4990},
      {"id": 2220148, "name": "JYSUPER JY-2570 AC/DC Rechargeable mini Desk Fan 8000mAh with RGB LED Light | 6-8 Hours Backup Portable Fan Bangladesh", "images": ["669090734-809849352167802-720040820288601854-n-1775995554783.webp","jysuper-jy-2570-mini-acdc-usb-desk-rrchargeable-fan-1775994734025.webp","jysuper-jy-2570-mini-acdc-usb-desk-rrchargeable-fan-2--1775994733071.webp","f4760f20-ae2d-453a-b00f-4337961bc796-1775994734627.webp","b8d9af517725c4f7025fbe849441ab49-1775994733599.webp","6c219f4f8f38a1ebb9892e54cc4b0d0e-1775994733887.webp","669572639-2040838116843516-3406578529286160837-n-1775995555003.webp"], "thumbnail": "669090734-809849352167802-720040820288601854-n-1775995554783.webp", "price": 3750, "discountedPrice": 2790, "discountPercentage": 26, "slug": "jysuper_jy-2570_acdc_rechargeable_mini_desk_fan_8000mah_with_rgb_led_light_6-8_hours_backup_portable_fan_bangladesh", "currentStockQty": 260},
      {"id": 1192742, "name": "Himalaya Clear Complexion Body Lotion – 200ml", "images": ["1829-1777893538042.webp"], "thumbnail": "1829-1777893538042.webp", "price": 290, "discountedPrice": 258, "discountPercentage": 11, "slug": "himalaya_clear_complexion_brightening_body_lotion_-200ml_nourishing_skin_cream_50gm_free", "currentStockQty": 7},
      {"id": 1721164, "name": "WGP Mini UPS 10400 mAh DC UPS for Onu, CCTV & Router, 5v 12v 12v Volt Output with Gtech 12V 3A Adapter", "images": ["wgp-5v-12v-12v-7--1765862344172.webp","gtech-12v-3a-1754277592957.webp","-48-1765862344792.webp","04ff00ad6ddf8cb80bc863ff57bbd33f-1765862345030.webp","wgp-mini-8800mah-multi-output-up-1765862345225.webp","wgp-mini-ups-gamebuybd-1765862345446.webp"], "thumbnail": "wgp-5v-12v-12v-7--1765862344172.webp", "price": 3000, "discountedPrice": 1990, "discountPercentage": 34, "slug": "wgp_mini_ups_10400_mah_dc_ups_for_onu_cctv_router_5v_9v_12v_volt_output_-_white_color_including_gtech_12v_3a_adapter_453187484850522_za166x", "currentStockQty": 7},
      {"id": 147618, "name": "Key Ring for Bikers - Car - Bike - Home - Office Key Ring - Nice key Ring - key Ring", "images": ["a063cbdce383b08b61553d306bb68044-89720add-86e8-4c09-9c85-69cb405da36b.webp","e9be6f2dd0b85f656f89870ab7531855-b938b096-8d2a-4934-87ae-2ab4471ba295.webp"], "thumbnail": "a063cbdce383b08b61553d306bb68044-89720add-86e8-4c09-9c85-69cb405da36b.webp", "price": 400, "discountedPrice": 98, "discountPercentage": 76, "slug": "key_ring_for_bikers_alt_2_4675749477666666_aaaa11", "currentStockQty": 500}
    ]
  }
}
